^D:\FOX VALLEY TECHNICAL COLLEGE\COMPUTER PROGRAMMING C++\ASSIGNMENT\WEEK 2\SIMPLE CALCULATOR\SIMPLECALCULATOR\SIMPLECALCULATOR\DEBUG\MAIN.OBJ
D:\FOX VALLEY TECHNICAL COLLEGE\COMPUTER PROGRAMMING C++\ASSIGNMENT\WEEK 2\SIMPLE CALCULATOR\SIMPLECALCULATOR\DEBUG\SIMPLECALCULATOR.EXE
D:\FOX VALLEY TECHNICAL COLLEGE\COMPUTER PROGRAMMING C++\ASSIGNMENT\WEEK 2\SIMPLE CALCULATOR\SIMPLECALCULATOR\DEBUG\SIMPLECALCULATOR.ILK
D:\FOX VALLEY TECHNICAL COLLEGE\COMPUTER PROGRAMMING C++\ASSIGNMENT\WEEK 2\SIMPLE CALCULATOR\SIMPLECALCULATOR\DEBUG\SIMPLECALCULATOR.PDB
